output/waves.vcd
$date
	Tue Dec  6 16:18:38 2022
$end

$version
	Synopsys VCS version R-2020.12
$end

$timescale
	10ps
$end

$comment Csum: 1 345507306ceb5e0d $end


$scope module top $end
$var reg 1 ! reset $end
$var wire 1 " RX $end
$var wire 1 # TX $end
$var wire 1 $ sSDA $end
$var wire 1 % sSCL $end
$var reg 1 & mSDA $end
$var reg 1 ' mSCL $end
$var reg 1 ( deubg_uart_tx_clk $end
$var reg 1 ) deubg_uart_rx_clk $end

$scope begin unnamed$$_vcs_2 $end
$upscope $end


$scope module D0 $end
$upscope $end


$scope module uart_master_intf $end
$var wire 1 * reset $end
$var wire 1 # TX $end
$var reg 1 + deubg_uart_tx_clk $end
$var wire 1 " RX $end
$upscope $end


$scope module uart_slave_intf $end
$var wire 1 * reset $end
$var wire 1 " RX $end
$var reg 1 , deubg_uart_rx_clk $end
$var wire 1 # TX $end
$upscope $end


$scope module i2c_master_intf $end
$var wire 1 * reset $end
$var reg 1 - SCL $end
$var reg 1 . SDA $end
$upscope $end


$scope module i2c_slave_intf $end
$var wire 1 * reset $end
$var wire 1 % SCL $end
$var wire 1 $ SDA $end
$upscope $end

$upscope $end


$scope module uvm_pkg $end
$var reg 32 / UVM_UNBOUNDED_CONNECTIONS [31:0] $end
$var reg 1 0 uvm_start_uvm_declarations $end
$var reg 32 1 uvm_global_random_seed [31:0] $end
$upscope $end

$enddefinitions $end

#0
$dumpvars
10
b11111111111111111111111111111111 /
b01000010000001111100110001000111 1
1!
x+
x(
x,
x)
x-
x'
x.
x&
1#
1"
1*
1%
1$
$end
#10000000
0!
0*
1-
1'
1.
1&
#20000000
1!
1*
0+
0(
0,
0)
0"
#25208333
1,
1)
#30416666
0,
0)
#30416667
1"
#35624999
1,
1)
#40833332
0,
0)
#46041665
1,
1)
#51249998
0,
0)
#56458331
1,
1)
#61666664
0,
0)
#66874997
1,
1)
#72083330
0,
0)
#72083335
0"
#77291663
1,
1)
#82499996
0,
0)
#87708329
1,
1)
#92916662
0,
0)
#92916669
1"
#98124995
1,
1)
#103333328
0,
0)
#103333336
0"
#108541661
1,
1)
#113749994
0,
0)
#113750003
1"
#118958327
1,
1)
0,
0)
#124166670
0"
#129375003
1,
1)
#134583336
0,
0)
#134583337
1"
#139791669
1,
1)
#145000002
0,
0)
#150208335
1,
1)
#155416668
0,
0)
#155416671
0"
#160625001
1,
1)
#165833334
0,
0)
#165833338
1"
#171041667
1,
1)
#176250000
0,
0)
#176250005
0"
#181458333
1,
1)
#186666666
0,
0)
#191874999
1,
1)
#197083332
0,
0)
#197083339
1"
#202291665
1,
1)
#207499998
0,
0)
#207500006
0"
#212708331
1,
1)
#217916664
0,
0)
#217916673
1"
#223124997
1,
1)
0,
0)
#228333330
1+
1(
0#
#233541663
0+
0(
#238749996
1+
1(
1#
#243958329
0+
0(
#249166662
1+
1(
#254374995
0+
0(
#259583328
1+
1(
0#
#264791661
0+
0(
#269999994
1+
1(
#275208327
0+
0(
#280416660
1+
1(
1#
#285624993
0+
0(
#290833326
1+
1(
0#
#296041659
0+
0(
#301249992
1+
1(
1#
#306458325
0+
0(
#311666658
1+
1(
0#
#316874991
0+
0(
#322083324
1+
1(
1#
0+
0(
#462708324
1+
1(
0#
#467916657
0+
0(
#473124990
1+
1(
#478333323
0+
0(
#483541656
1+
1(
#488749989
0+
0(
#493958322
1+
1(
1#
#499166655
0+
0(
#504374988
1+
1(
0#
#509583321
0+
0(
#514791654
1+
1(
#519999987
0+
0(
#525208320
1+
1(
1#
#530416653
0+
0(
#535624986
1+
1(
0#
#540833319
0+
0(
#546041652
1+
1(
1#
#551249985
0+
0(
#556458318
1+
1(
0+
0(
#697083318
1+
1(
0#
#702291651
0+
0(
#707499984
1+
1(
#712708317
0+
0(
#717916650
1+
1(
1#
#723124983
0+
0(
#728333316
1+
1(
0#
#733541649
0+
0(
#738749982
1+
1(
#743958315
0+
0(
#749166648
1+
1(
1#
#754374981
0+
0(
#759583314
1+
1(
0#
#764791647
0+
0(
#769999980
1+
1(
#775208313
0+
0(
#780416646
1+
1(
#785624979
0+
0(
#790833312
1+
1(
1#
0+
0(
#931458312
1+
1(
0#
#936666645
0+
0(
#941874978
1+
1(
#947083311
0+
0(
#952291644
1+
1(
#957499977
0+
0(
#962708310
1+
1(
1#
#967916643
0+
0(
#973124976
1+
1(
0#
#978333309
0+
0(
#983541642
1+
1(
1#
#988749975
0+
0(
#993958308
1+
1(
0#
#999166641
0+
0(
#1004374974
1+
1(
1#
#1009583307
0+
0(
#1014791640
1+
1(
#1019999973
0+
0(
#1025208306
1+
1(
0+
0(
#1165833306
1+
1(
0#
#1171041639
0+
0(
#1176249972
1+
1(
#1181458305
0+
0(
#1186666638
1+
1(
#1191874971
0+
0(
#1197083304
1+
1(
1#
#1202291637
0+
0(
#1207499970
1+
1(
0#
#1212708303
0+
0(
#1217916636
1+
1(
1#
#1223124969
0+
0(
#1228333302
1+
1(
#1233541635
0+
0(
#1238749968
1+
1(
0#
#1243958301
0+
0(
#1249166634
1+
1(
1#
#1254374967
0+
0(
#1259583300
1+
1(
0+
0(
#1400208300
1+
1(
0#
#1405416633
0+
0(
#1410624966
1+
1(
1#
#1415833299
0+
0(
#1421041632
1+
1(
0#
#1426249965
0+
0(
#1431458298
1+
1(
#1436666631
0+
0(
#1441874964
1+
1(
#1447083297
0+
0(
#1452291630
1+
1(
#1457499963
0+
0(
#1462708296
1+
1(
#1467916629
0+
0(
#1473124962
1+
1(
#1478333295
0+
0(
#1483541628
1+
1(
1#
#1488749961
0+
0(
#1493958294
1+
1(
0+
0(
#1634583294
1+
1(
0#
#1639791627
0+
0(
#1644999960
1+
1(
1#
#1650208293
0+
0(
#1655416626
1+
1(
#1660624959
0+
0(
#1665833292
1+
1(
#1671041625
0+
0(
#1676249958
1+
1(
#1681458291
0+
0(
#1686666624
1+
1(
0#
#1691874957
0+
0(
#1697083290
1+
1(
1#
#1702291623
0+
0(
#1707499956
1+
1(
#1712708289
0+
0(
#1717916622
1+
1(
#1723124955
0+
0(
#1728333288
1+
1(
0+
0(
#1868958288
1+
1(
0#
#1874166621
0+
0(
#1879374954
1+
1(
1#
#1884583287
0+
0(
#1889791620
1+
1(
0#
#1894999953
0+
0(
#1900208286
1+
1(
1#
#1905416619
0+
0(
#1910624952
1+
1(
0#
#1915833285
0+
0(
#1921041618
1+
1(
1#
#1926249951
0+
0(
#1931458284
1+
1(
#1936666617
0+
0(
#1941874950
1+
1(
0#
#1947083283
0+
0(
#1952291616
1+
1(
1#
#1957499949
0+
0(
#1962708282
1+
1(
0+
0(
#2103333282
1+
1(
0#
#2108541615
0+
0(
#2113749948
1+
1(
#2118958281
0+
0(
#2124166614
1+
1(
#2129374947
0+
0(
#2134583280
1+
1(
1#
#2139791613
0+
0(
#2144999946
1+
1(
0#
#2150208279
0+
0(
#2155416612
1+
1(
1#
#2160624945
0+
0(
#2165833278
1+
1(
#2171041611
0+
0(
#2176249944
1+
1(
0#
#2181458277
0+
0(
#2186666610
1+
1(
#2191874943
0+
0(
#2197083276
1+
1(
1#
0+
0(
#2337708276
1+
1(
0#
#2342916609
0+
0(
#2348124942
1+
1(
1#
#2353333275
0+
0(
#2358541608
1+
1(
0#
#2363749941
0+
0(
#2368958274
1+
1(
1#
#2374166607
0+
0(
#2379374940
1+
1(
#2384583273
0+
0(
#2389791606
1+
1(
0#
#2394999939
0+
0(
#2400208272
1+
1(
1#
#2405416605
0+
0(
#2410624938
1+
1(
0#
#2415833271
0+
0(
#2421041604
1+
1(
#2426249937
0+
0(
#2431458270
1+
1(
1#
0+
0(
#2572083270
1+
1(
0#
#2577291603
0+
0(
#2582499936
1+
1(
1#
#2587708269
0+
0(
#2592916602
1+
1(
0#
#2598124935
0+
0(
#2603333268
1+
1(
#2608541601
0+
0(
#2613749934
1+
1(
1#
#2618958267
0+
0(
#2624166600
1+
1(
#2629374933
0+
0(
#2634583266
1+
1(
#2639791599
0+
0(
#2644999932
1+
1(
0#
#2650208265
0+
0(
#2655416598
1+
1(
1#
#2660624931
0+
0(
#2665833264
1+
1(
0+
0(
#2806458264
1+
1(
0#
#2811666597
0+
0(
#2816874930
1+
1(
1#
#2822083263
0+
0(
#2827291596
1+
1(
#2832499929
0+
0(
#2837708262
1+
1(
#2842916595
0+
0(
#2848124928
1+
1(
0#
#2853333261
0+
0(
#2858541594
1+
1(
1#
#2863749927
0+
0(
#2868958260
1+
1(
0#
#2874166593
0+
0(
#2879374926
1+
1(
#2884583259
0+
0(
#2889791592
1+
1(
1#
#2894999925
0+
0(
#2900208258
1+
1(
0+
0(
#3040833258
1+
1(
0#
#3046041591
0+
0(
#3051249924
1+
1(
1#
#3056458257
0+
0(
#3061666590
1+
1(
#3066874923
0+
0(
#3072083256
1+
1(
#3077291589
0+
0(
#3082499922
1+
1(
#3087708255
0+
0(
#3092916588
1+
1(
#3098124921
0+
0(
#3103333254
1+
1(
#3108541587
0+
0(
#3113749920
1+
1(
0#
#3118958253
0+
0(
#3124166586
1+
1(
#3129374919
0+
0(
#3134583252
1+
1(
1#
0+
0(
#3275208252
1+
1(
0#
#3280416585
0+
0(
#3285624918
1+
1(
#3290833251
0+
0(
#3296041584
1+
1(
1#
#3301249917
0+
0(
#3306458250
1+
1(
#3311666583
0+
0(
#3316874916
1+
1(
#3322083249
0+
0(
#3327291582
1+
1(
#3332499915
0+
0(
#3337708248
1+
1(
0#
#3342916581
0+
0(
#3348124914
1+
1(
#3353333247
0+
0(
#3358541580
1+
1(
#3363749913
0+
0(
#3368958246
1+
1(
1#
0+
0(
#3509583246
1+
1(
0#
#3514791579
0+
0(
#3519999912
1+
1(
#3525208245
0+
0(
#3530416578
1+
1(
1#
#3535624911
0+
0(
#3540833244
1+
1(
0#
#3546041577
0+
0(
#3551249910
1+
1(
1#
#3556458243
0+
0(
#3561666576
1+
1(
0#
#3566874909
0+
0(
#3572083242
1+
1(
1#
#3577291575
0+
0(
#3582499908
1+
1(
#3587708241
0+
0(
#3592916574
1+
1(
#3598124907
0+
0(
#3603333240
1+
1(
0+
0(
#3743958240
1+
1(
0#
#3749166573
0+
0(
#3754374906
1+
1(
1#
#3759583239
0+
0(
#3764791572
1+
1(
0#
#3769999905
0+
0(
#3775208238
1+
1(
1#
#3780416571
0+
0(
#3785624904
1+
1(
0#
#3790833237
0+
0(
#3796041570
1+
1(
#3801249903
0+
0(
#3806458236
1+
1(
#3811666569
0+
0(
#3816874902
1+
1(
#3822083235
0+
0(
#3827291568
1+
1(
#3832499901
0+
0(
#3837708234
1+
1(
1#
0+
0(
#3978333234
1+
1(
0#
#3983541567
0+
0(
#3988749900
1+
1(
#3993958233
0+
0(
#3999166566
1+
1(
1#
#4004374899
0+
0(
#4009583232
1+
1(
0#
#4014791565
0+
0(
#4019999898
1+
1(
#4025208231
0+
0(
#4030416564
1+
1(
#4035624897
0+
0(
#4040833230
1+
1(
1#
#4046041563
0+
0(
#4051249896
1+
1(
#4056458229
0+
0(
#4061666562
1+
1(
#4066874895
0+
0(
#4072083228
1+
1(
0+
0(
#4212708228
1+
1(
0#
#4217916561
0+
0(
#4223124894
1+
1(
#4228333227
0+
0(
#4233541560
1+
1(
#4238749893
0+
0(
#4243958226
1+
1(
#4249166559
0+
0(
#4254374892
1+
1(
#4259583225
0+
0(
#4264791558
1+
1(
#4269999891
0+
0(
#4275208224
1+
1(
1#
#4280416557
0+
0(
#4285624890
1+
1(
#4290833223
0+
0(
#4296041556
1+
1(
0#
#4301249889
0+
0(
#4306458222
1+
1(
1#
0+
0(
#4447083222
1+
1(
0#
#4452291555
0+
0(
#4457499888
1+
1(
#4462708221
0+
0(
#4467916554
1+
1(
1#
#4473124887
0+
0(
#4478333220
1+
1(
#4483541553
0+
0(
#4488749886
1+
1(
#4493958219
0+
0(
#4499166552
1+
1(
0#
#4504374885
0+
0(
#4509583218
1+
1(
1#
#4514791551
0+
0(
#4519999884
1+
1(
0#
#4525208217
0+
0(
#4530416550
1+
1(
#4535624883
0+
0(
#4540833216
1+
1(
1#
0+
0(
#4681458216
1+
1(
0#
#4686666549
0+
0(
#4691874882
1+
1(
#4697083215
0+
0(
#4702291548
1+
1(
1#
#4707499881
0+
0(
#4712708214
1+
1(
0#
#4717916547
0+
0(
#4723124880
1+
1(
1#
#4728333213
0+
0(
#4733541546
1+
1(
0#
#4738749879
0+
0(
#4743958212
1+
1(
#4749166545
0+
0(
#4754374878
1+
1(
#4759583211
0+
0(
#4764791544
1+
1(
#4769999877
0+
0(
#4775208210
1+
1(
1#
0+
0(
#4915833210
1+
1(
0#
#4921041543
0+
0(
#4926249876
1+
1(
1#
#4931458209
0+
0(
#4936666542
1+
1(
0#
#4941874875
0+
0(
#4947083208
1+
1(
1#
#4952291541
0+
0(
#4957499874
1+
1(
0#
#4962708207
0+
0(
#4967916540
1+
1(
#4973124873
0+
0(
#4978333206
1+
1(
#4983541539
0+
0(
#4988749872
1+
1(
1#
#4993958205
0+
0(
#4999166538
1+
1(
#5004374871
0+
0(
#5004628212
0$
#5004881545
0%
#5005134878
1$
#5005388211
1%
#5005894877
0%
#5006148210
0$
#5006401543
1%
#5006908209
0%
#5007161542
1$
#5007414875
1%
#5007921541
0%
#5008174874
0$
#5008428207
1%
#5008934873
0%
#5009441539
1%
#5009583204
1+
1(
0+
0(
#5009948205
0%
#5010201538
1$
#5010454871
1%
#5010961537
0%
#5011214870
0$
#5011468203
1%
#5011974869
0%
#5012481535
1%
0.
0&
#5012988201
0%
#5013241534
1$
#5013494867
1%
#5014001533
0%
#5014508199
1%
#5015014865
0%
#5015521531
1%
#5016028197
0%
#5016281530
0$
#5016534863
1%
#5017041529
0%
#5017294862
1$
#5017548195
1%
#5018054861
0%
#5018308194
0$
#5018561527
1%
#5019068193
0%
#5019321526
1$
#5019574859
1%
#5020081525
0%
#5020334858
0$
#5020588191
1%
#5021094857
0%
#5021601523
1%
#5022108189
0%
#5022361522
1$
#5022614855
1%
#5023121521
0%
#5023628187
1%
#5024134853
0%
#5024388186
0$
#5024641519
1%
#5025148185
0%
#5025401518
1$
#5025654851
1%
#5026161517
0%
#5026668183
1%
#5027174849
0%
#5027428182
0$
#5027681515
1%
#5028188181
0%
#5028441514
1$
#5028694847
1%
#5029201513
0%
#5029454846
0$
#5029708179
1%
#5030214845
0%
#5030721511
1%
#5031228177
0%
#5031481510
1$
#5031734843
1%
#5032241509
0%
#5032748175
1%
#5033254841
0%
#5033508174
0$
#5033761507
1%
#5034268173
0%
#5034774839
1%
#5035281505
0%
#5035788171
1%
#5036294837
0%
#5036801503
1%
#5037308169
0%
#5037814835
1%
#5038321501
0%
#5038828167
1%
#5039334833
0%
#5039588166
1$
#5039841499
1%
#5040348165
0%
#5040854831
1%
#5041361497
0%
#5041868163
1%
#5042374829
0%
#5042881495
1%
#5043388161
0%
#5043894827
1%
#5044401493
0%
#5044654826
0$
#5044908159
1%
#5045414825
0%
#5045668158
1$
#5045921491
1%
#5046428157
0%
#5046934823
1%
#5047441489
0%
#5047948155
1%
#5048454821
0%
#5048961487
1%
#5049468153
0%
#5049974819
1%
#5050481485
0%
#5050988151
1%
#5051494817
0%
#5051748150
0$
#5052001483
1%
#5052508149
0%
#5052761482
1$
#5053014815
1%
#5053521481
0%
#5054028147
1%
#5054534813
0%
#5054788146
0$
#5055041479
1%
#5055548145
0%
#5055801478
1$
#5056054811
1%
#5056561477
0%
#5056814810
0$
#5057068143
1%
#5057574809
0%
#5057828142
1$
#5058081475
1%
#5058588141
0%
#5059094807
1%
#5059601473
0%
#5059854806
0$
#5060108139
1%
#5060614805
0%
#5061121471
1%
#5061628137
0%
#5061881470
1$
#5062134803
1%
#5062641469
0%
#5063148135
1%
#5063654801
0%
#5063908134
0$
#5064161467
1%
#5064668133
0%
#5064921466
1$
#5065174799
1%
#5065681465
0%
#5065934798
0$
#5066188131
1%
#5066694797
0%
#5067201463
1%
#5067708129
0%
#5067961462
1$
#5068214795
1%
#5068721461
0%
#5068974794
0$
#5069228127
1%
#5069734793
0%
#5070241459
1%
#5070748125
0%
#5071001458
1$
#5071254791
1%
#5071761457
0%
#5072014790
0$
#5072268123
1%
#5072774789
0%
#5073028122
1$
#5073281455
1%
#5073788121
0%
#5074294787
1%
#5074801453
0%
#5075054786
0$
#5075308119
1%
#5075814785
0%
#5076068118
1$
#5076321451
1%
#5076828117
0%
#5077334783
1%
#5077841449
0%
#5078348115
1%
#5078854781
0%
#5079108114
0$
#5079361447
1%
#5079868113
0%
#5080121446
1$
#5080374779
1%
#5080881445
0%
#5081388111
1%
#5081894777
0%
#5082401443
1%
#5082908109
0%
#5083161442
0$
#5083414775
1%
#5083921441
0%
#5084428107
1%
#5084934773
0%
#5085188106
1$
#5085441439
1%
#5085948105
0%
#5086454771
1%
#5086961437
0%
#5087468103
1%
#5087974769
0%
#5088228102
0$
#5088481435
1%
#5088988101
0%
#5089494767
1%
#5090001433
0%
#5090254766
1$
#5090508099
1%
#5091014765
0%
#5091268098
0$
#5091521431
1%
#5092028097
0%
#5092281430
1$
#5092534763
1%
#5093041429
0%
#5093548095
1%
#5094054761
0%
#5094561427
1%
#5095068093
0%
#5095574759
1%
#5096081425
0%
#5096334758
0$
#5096588091
1%
#5097094757
0%
#5097601423
1%
#5098108089
0%
#5098361422
1$
#5098614755
1%
#5099121421
0%
#5099628087
1%
#5100134753
0%
#5100641419
1%
#5101148085
0%
#5101654751
1%
#5102161417
0%
#5102668083
1%
#5103174749
0%
#5103681415
1%
#5104188081
0%
#5104694747
1%
#5105201413
0%
#5105454746
0$
#5105708079
1%
#5106214745
0%
#5106721411
1%
#5107228077
0%
#5107734743
1%
#5108241409
0%
#5108494742
1$
#5108748075
1%
#5109254741
0%
#5109761407
1%
#5110268073
0%
#5110774739
1%
#5111281405
0%
#5111788071
1%
#5112294737
0%
#5112548070
0$
#5112801403
1%
#5113308069
0%
#5113561402
1$
#5113814735
1%
#5114321401
0%
#5114828067
1%
#5115334733
0%
#5115841399
1%
#5116348065
0%
#5116854731
1%
#5117361397
0%
#5117614730
0$
#5117868063
1%
#5118374729
0%
#5118628062
1$
#5118881395
1%
#5119388061
0%
#5119641394
0$
#5119894727
1%
#5120401393
0%
#5120654726
1$
#5120908059
1%
#5121414725
0%
#5121668058
0$
#5121921391
1%
#5122428057
0%
#5122681390
1$
#5122934723
1%
#5123441389
0%
#5123694722
0$
#5123948055
1%
#5124454721
0%
#5124961387
1%
#5125468053
0%
#5125974719
1%
#5126481385
0%
#5126988051
1%
#5127494717
0%
#5128001383
1%
#5128508049
0%
#5128761382
1$
#5129014715
1%
#5129521381
0%
#5129774714
0$
#5130028047
1%
#5130534713
0%
#5130788046
1$
#5131041379
1%
#5131548045
0%
#5132054711
1%
#5132561377
0%
#5133068043
1%
#5133574709
0%
#5134081375
1%
#5134588041
0%
#5135094707
1%
#5135601373
0%
#5135854706
0$
#5136108039
1%
#5136614705
0%
#5137121371
1%
#5137628037
0%
#5138134703
1%
#5138641369
0%
#5138894702
1$
#5139148035
1%
#5139654701
0%
#5139908034
0$
#5140161367
1%
#5140668033
0%
#5140921366
1$
#5141174699
1%
#5141681365
0%
#5141934698
0$
#5142188031
1%
#5142694697
0%
#5142948030
1$
#5143201363
1%
#5143708029
0%
#5144214695
1%
#5144721361
0%
#5144974694
0$
#5145228027
1%
#5145734693
0%
#5146241359
1%
#5146748025
0%
#5147254691
1%
#5147761357
0%
#5148268023
1%
#5148774689
0%
#5149281355
1%
#5149788021
0%
#5150041354
1$
#5150208204
1+
1(
0#
#5150294687
1%
#5150801353
0%
#5151054686
0$
#5151308019
1%
#5151814685
0%
#5152321351
1%
#5152828017
0%
#5153081350
1$
#5153334683
1%
#5153841349
0%
#5154094682
0$
#5154348015
1%
#5154854681
0%
#5155108014
1$
#5155361347
1%
#5155416537
0+
0(
#5155868013
0%
#5156374679
1%
#5156881345
0%
#5157388011
1%
#5157894677
0%
#5158148010
0$
#5158401343
1%
#5158908009
0%
#5159161342
1$
#5159414675
1%
#5159921341
0%
#5160174674
0$
#5160428007
1%
#5160624870
1+
1(
#5160934673
0%
#5161441339
1%
#5161948005
0%
#5162454671
1%
#5162961337
0%
#5163468003
1%
#5163974669
0%
#5164228002
1$
#5164481335
1%
#5164988001
0%
#5165241334
0$
#5165494667
1%
#5165833203
0+
0(
#5166001333
0%
#5166254666
1$
#5166507999
1%
#5167014665
0%
#5167267998
0$
#5167521331
1%
#5168027997
0%
#5168281330
1$
#5168534663
1%
#5169041329
0%
#5169547995
1%
#5170054661
0%
#5170561327
1%
#5171041536
1+
1(
#5171067993
0%
#5171321326
0$
#5171574659
1%
#5172081325
0%
#5172587991
1%
#5173094657
0%
#5173601323
1%
#5174107989
0%
#5174361322
1$
#5174614655
1%
#5175121321
0%
#5175374654
0$
#5175627987
1%
#5176134653
0%
#5176249869
0+
0(
#5176387986
1$
#5176641319
1%
#5177147985
0%
#5177654651
1%
#5178161317
0%
#5178414650
0$
#5178667983
1%
#5178921316
1$
#5181458202
1+
1(
#5186666535
0+
0(
#5191874868
1+
1(
#5197083201
0+
0(
#5202291534
1+
1(
1#
#5207499867
0+
0(
#5212708200
1+
1(
0#
#5217916533
0+
0(
#5223124866
1+
1(
1#
#5228333199
0+
0(
#5233541532
1+
1(
0#
#5238749865
0+
0(
#5243958198
1+
1(
1#
0+
0(
#5384583198
1+
1(
0#
#5389791531
0+
0(
#5394999864
1+
1(
1#
#5400208197
0+
0(
#5405416530
1+
1(
#5410624863
0+
0(
#5415833196
1+
1(
0#
#5421041529
0+
0(
#5426249862
1+
1(
#5431458195
0+
0(
#5436666528
1+
1(
1#
#5441874861
0+
0(
#5447083194
1+
1(
0#
#5452291527
0+
0(
#5457499860
1+
1(
1#
#5462708193
0+
0(
#5467916526
1+
1(
0#
#5473124859
0+
0(
#5478333192
1+
1(
1#
0+
0(
#5618958192
1+
1(
0#
#5624166525
0+
0(
#5629374858
1+
1(
1#
#5634583191
0+
0(
#5639791524
1+
1(
0#
#5644999857
0+
0(
#5650208190
1+
1(
1#
#5655416523
0+
0(
#5660624856
1+
1(
0#
#5665833189
0+
0(
#5671041522
1+
1(
#5676249855
0+
0(
#5681458188
1+
1(
1#
#5686666521
0+
0(
#5691874854
1+
1(
0#
#5697083187
0+
0(
#5702291520
1+
1(
1#
#5707499853
0+
0(
#5712708186
1+
1(
0+
0(
#5853333186
1+
1(
0#
#5858541519
0+
0(
#5863749852
1+
1(
#5868958185
0+
0(
#5874166518
1+
1(
1#
#5879374851
0+
0(
#5884583184
1+
1(
0#
#5889791517
0+
0(
#5894999850
1+
1(
1#
#5900208183
0+
0(
#5905416516
1+
1(
0#
#5910624849
0+
0(
#5915833182
1+
1(
#5921041515
0+
0(
#5926249848
1+
1(
#5931458181
0+
0(
#5936666514
1+
1(
#5941874847
0+
0(
#5947083180
1+
1(
1#
0+
0(
#6087708180
1+
1(
0#
#6092916513
0+
0(
#6098124846
1+
1(
#6103333179
0+
0(
#6108541512
1+
1(
#6113749845
0+
0(
#6118958178
1+
1(
#6124166511
0+
0(
#6129374844
1+
1(
#6134583177
0+
0(
#6139791510
1+
1(
1#
#6144999843
0+
0(
#6150208176
1+
1(
0#
#6155416509
0+
0(
#6160624842
1+
1(
1#
#6165833175
0+
0(
#6171041508
1+
1(
0#
#6176249841
0+
0(
#6181458174
1+
1(
1#
0+
0(
#6322083174
1+
1(
0#
#6327291507
0+
0(
#6332499840
1+
1(
1#
#6337708173
0+
0(
#6342916506
1+
1(
#6348124839
0+
0(
#6353333172
1+
1(
0#
#6358541505
0+
0(
#6363749838
1+
1(
#6368958171
0+
0(
#6374166504
1+
1(
1#
#6379374837
0+
0(
#6384583170
1+
1(
0#
#6389791503
0+
0(
#6394999836
1+
1(
1#
#6400208169
0+
0(
#6405416502
1+
1(
0#
#6410624835
0+
0(
#6415833168
1+
1(
1#
0+
0(
#6566874835
1+
1(
0#
#6572083168
0+
0(
#6577291501
1+
1(
#6582499834
0+
0(
#6587708167
1+
1(
#6592916500
0+
0(
#6598124833
1+
1(
1#
#6603333166
0+
0(
#6608541499
1+
1(
0#
#6613749832
0+
0(
#6618958165
1+
1(
#6624166498
0+
0(
#6629374831
1+
1(
1#
#6634583164
0+
0(
#6639791497
1+
1(
0#
#6644999830
0+
0(
#6650208163
1+
1(
1#
#6655416496
0+
0(
#6660624829
1+
1(
0+
0(
#6811666496
1+
1(
0#
#6816874829
0+
0(
#6822083162
1+
1(
#6827291495
0+
0(
#6832499828
1+
1(
1#
#6837708161
0+
0(
#6842916494
1+
1(
#6848124827
0+
0(
#6853333160
1+
1(
#6858541493
0+
0(
#6863749826
1+
1(
0#
#6868958159
0+
0(
#6874166492
1+
1(
#6879374825
0+
0(
#6884583158
1+
1(
#6889791491
0+
0(
#6894999824
1+
1(
#6900208157
0+
0(
#6905416490
1+
1(
1#
0+
0(
#7056458157
1+
1(
0#
#7061666490
0+
0(
#7066874823
1+
1(
#7072083156
0+
0(
#7077291489
1+
1(
#7082499822
0+
0(
#7087708155
1+
1(
1#
#7092916488
0+
0(
#7098124821
1+
1(
0#
#7103333154
0+
0(
#7108541487
1+
1(
#7113749820
0+
0(
#7118958153
1+
1(
#7124166486
0+
0(
#7129374819
1+
1(
#7134583152
0+
0(
#7139791485
1+
1(
1#
#7144999818
0+
0(
#7150208151
1+
1(
0+
0(
#7301249818
1+
1(
0#
#7306458151
0+
0(
#7311666484
1+
1(
#7316874817
0+
0(
#7322083150
1+
1(
#7327291483
0+
0(
#7332499816
1+
1(
1#
#7337708149
0+
0(
#7342916482
1+
1(
0#
#7348124815
0+
0(
#7353333148
1+
1(
1#
#7358541481
0+
0(
#7363749814
1+
1(
#7368958147
0+
0(
#7374166480
1+
1(
0#
#7379374813
0+
0(
#7384583146
1+
1(
1#
#7389791479
0+
0(
#7394999812
1+
1(
0+
0(
#7546041479
1+
1(
0#
#7551249812
0+
0(
#7556458145
1+
1(
1#
#7561666478
0+
0(
#7566874811
1+
1(
#7572083144
0+
0(
#7577291477
1+
1(
0#
#7582499810
0+
0(
#7587708143
1+
1(
#7592916476
0+
0(
#7598124809
1+
1(
#7603333142
0+
0(
#7608541475
1+
1(
#7613749808
0+
0(
#7618958141
1+
1(
#7624166474
0+
0(
#7629374807
1+
1(
#7634583140
0+
0(
#7639791473
1+
1(
1#
0+
0(
#7790833140
1+
1(
0#
#7796041473
0+
0(
#7801249806
1+
1(
1#
#7806458139
0+
0(
#7811666472
1+
1(
#7816874805
0+
0(
#7822083138
1+
1(
0#
#7827291471
0+
0(
#7832499804
1+
1(
1#
#7837708137
0+
0(
#7842916470
1+
1(
0#
#7848124803
0+
0(
#7853333136
1+
1(
#7858541469
0+
0(
#7863749802
1+
1(
1#
#7868958135
0+
0(
#7874166468
1+
1(
0#
#7879374801
0+
0(
#7884583134
1+
1(
1#
0+
0(
#8035624801
1+
1(
0#
#8040833134
0+
0(
#8046041467
1+
1(
#8051249800
0+
0(
#8056458133
1+
1(
1#
#8061666466
0+
0(
#8066874799
1+
1(
0#
#8072083132
0+
0(
#8077291465
1+
1(
1#
#8082499798
0+
0(
#8087708131
1+
1(
#8092916464
0+
0(
#8098124797
1+
1(
0#
#8103333130
0+
0(
#8108541463
1+
1(
1#
#8113749796
0+
0(
#8118958129
1+
1(
#8124166462
0+
0(
#8129374795
1+
1(
0+
0(
#8280416462
1+
1(
0#
#8285624795
0+
0(
#8290833128
1+
1(
1#
#8296041461
0+
0(
#8301249794
1+
1(
#8306458127
0+
0(
#8311666460
1+
1(
0#
#8316874793
0+
0(
#8322083126
1+
1(
#8327291459
0+
0(
#8332499792
1+
1(
1#
#8337708125
0+
0(
#8342916458
1+
1(
#8348124791
0+
0(
#8353333124
1+
1(
0#
#8358541457
0+
0(
#8363749790
1+
1(
1#
#8368958123
0+
0(
#8369211464
0$
#8369464797
0%
#8369718130
1$
#8369971463
1%
#8370478129
0%
#8370731462
0$
#8370984795
1%
#8371491461
0%
#8371744794
1$
#8371998127
1%
#8372504793
0%
#8372758126
0$
#8373011459
1%
#8373518125
0%
#8374024791
1%
#8374166456
1+
1(
0+
0(
#8374531457
0%
#8374784790
1$
#8375038123
1%
#8375544789
0%
#8375798122
0$
#8376051455
1%
#8376558121
0%
#8376811454
1$
#8377064787
1%
#8377571453
0%
#8378078119
1%
#8378584785
0%
#8379091451
1%
#8379598117
0%
#8380104783
1%
#8380611449
0%
#8381118115
1%
#8381624781
0%
#8382131447
1%
#8382638113
0%
#8383144779
1%
#8383651445
0%
#8384158111
1%
#8384664777
0%
#8385171443
1%
#8385678109
0%
#8386184775
1%
#8386691441
0%
#8386944774
0$
#8387198107
1%
#8387704773
0%
#8387958106
1$
0"
#8388211439
1%
#8388718105
0%
#8389224771
1%
#8389731437
0%
#8390238103
1%
#8390744769
0%
#8391251435
1%
#8391758101
0%
#8392264767
1%
#8392771433
0%
#8393166439
1,
1)
#8393278099
1%
#8393784765
0%
#8394291431
1%
#8394798097
0%
#8395304763
1%
#8395811429
0%
#8396064762
0$
#8396318095
1%
#8396824761
0%
#8397078094
1$
#8397331427
1%
#8397838093
0%
#8398344759
1%
#8398374772
0,
0)
#8398851425
0%
#8399358091
1%
#8399864757
0%
#8400371423
1%
#8400878089
0%
#8401384755
1%
#8401891421
0%
#8402398087
1%
#8402904753
0%
#8403411419
1%
#8403583105
1,
1)
#8403918085
0%
#8404424751
1%
#8404931417
0%
#8405184750
0$
#8405438083
1%
#8405944749
0%
#8406198082
1$
#8406451415
1%
#8406958081
0%
#8407464747
1%
#8407971413
0%
#8408478079
1%
#8408791438
0,
0)
#8408984745
0%
#8409491411
1%
#8409998077
0%
#8410504743
1%
#8411011409
0%
#8411518075
1%
#8412024741
0%
